Chapter 6 Reproducibility | Merely Useful: Novice R
…
```{r co2-time-plot-after-2000-1, fig.cap="Add your figure title here.", fig.height=4, fig.width=7}
co2_after_2000 <- co2_data %>%
    filter(year >= 2000)

# Print dataframe
co2_after_2000

# Print plot
ggplot(co2_after_2000, aes(x = year, y = co2_standard)) +
    geom_point()
```

## # A tibble: 680 x 5
##     year month date_numeric co2_standard station               
##    <dbl> <dbl>        <dbl>        <dbl> <chr>                 
##  1  2000     1        2000.         369. Mauna Loa, Hawaii, USA
##  2  2000     2        2000.         369. Mauna Loa, Hawaii, USA
##  3  2000     3        2000.         371. Mauna Loa, Hawaii, USA
##  4  2000     4        2000.         372. Mauna Loa, Hawaii, USA
##  5  2000     5        2000.         372. Mauna Loa, Hawaii, USA
##  6  2000     6        2000.         372. Mauna Loa, Hawaii, USA
##  7  2000     7        2001.         370. Mauna Loa, Hawaii, USA
##  8  2000     8        2001.         368. Mauna Loa, Hawaii, USA
##  9  2000     9        2001.         367. Mauna Loa, Hawaii, USA
## 10  2000    10        2001.         367. Mauna Loa, Hawaii, USA
## # … with 670 more rows
…
